{
  "newproducts": [
    {
      "id": 1,
      "price": 2800,
      "name": "MacBook Pro"
    },
    {
      "id": 2,
      "price": 50,
      "name": "USB-C Adaptor"
    },
    {
      "id": 3,
      "price": 400,
      "name": "Ipod"
    },
    {
      "id": 4,
      "price": 900,
      "name": "Iphone"
    },
    {
      "id": 5,
      "price": 600,
      "name": "Apple watch"
    },
    {
      "id": 6,
      "price": 150,
      "name": "MacBook Pro Charger"
    }
  ],
  "branches": [
    {
      "id": "B182"
    },
    {
      "id": "A420"
    },
    {
      "id": "E875"
    },
    {
      "id": "C439"
    }
  ],
  "products": [
    {
      "id": 1,
      "index": 35,
      "isActive": true,
      "like": false,
      "price": 2800,
      "quantity": 10,
      "share": 4,
      "picture": "https://img.bfmtv.com/c/400/250/4c7/301ba208e1dfb6e44f6e2fd75e180.jpg",
      "name": "MacBook Pro",
      "description": "Ullamco cupidatat id proident incididunt minim consectetur sit labore amet qui eu. Nisi esse anim commodo excepteur ad laboris cillum mollit et nostrud. Est excepteur et fugiat magna excepteur Lorem elit do aute dolore. Nostrud exercitation excepteur ut laboris sit. Aliquip aliquip in pariatur reprehenderit culpa labore adipisicing. Occaecat ullamco aliqua in magna amet fugiat ea proident non ut. Exercitation exercitation fugiat cillum eu.\r\n"
    },
    {
      "id": 2,
      "index": 38,
      "isActive": true,
      "like": false,
      "price": 50,
      "quantity": 10,
      "share": 7,
      "picture": "https://www.capitani.be/144097-home_default/logilink-usb-adapter-usb-3-0-combo-vga-hdmi.jpg",
      "name": "USB-C Adaptor",
      "description": "Ullamco cupidatat id proident incididunt minim consectetur sit labore amet qui eu. Nisi esse anim commodo excepteur ad laboris cillum mollit et nostrud. Est excepteur et fugiat magna excepteur Lorem elit do aute dolore. Nostrud exercitation excepteur ut laboris sit. Aliquip aliquip in pariatur reprehenderit culpa labore adipisicing. Occaecat ullamco aliqua in magna amet fugiat ea proident non ut. Exercitation exercitation fugiat cillum eu.\r\n"
    },
    {
      "id": 3,
      "isActive": true,
      "like": false,
      "price": 400,
      "quantity": 10,
      "share": 3,
      "picture": "https://img.bfmtv.com/c/400/250/34e/efe31540d5463f370120ff2ff21b5.jpg",
      "name": "Ipod",
      "description": "Ullamco cupidatat id proident incididunt minim consectetur sit labore amet qui eu. Nisi esse anim commodo excepteur ad laboris cillum mollit et nostrud. Est excepteur et fugiat magna excepteur Lorem elit do aute dolore. Nostrud exercitation excepteur ut laboris sit. Aliquip aliquip in pariatur reprehenderit culpa labore adipisicing. Occaecat ullamco aliqua in magna amet fugiat ea proident non ut. Exercitation exercitation fugiat cillum eu.\r\n"
    },
    {
      "id": 4,
      "price": 900,
      "name": "Iphone",
      "isActive": true,
      "like": true,
      "quantity": 10,
      "share": 3,
      "picture": "https://d3hsvfl3m9bu8t.cloudfront.net/16414-home_default/apple-iphone-x.jpg",
      "description": "Ullamco cupidatat id proident incididunt minim consectetur sit labore amet qui eu. Nisi esse anim commodo excepteur ad laboris cillum mollit et nostrud. Est excepteur et fugiat magna excepteur Lorem elit do aute dolore. Nostrud exercitation excepteur ut laboris sit. Aliquip aliquip in pariatur reprehenderit culpa labore adipisicing. Occaecat ullamco aliqua in magna amet fugiat ea proident non ut. Exercitation exercitation fugiat cillum eu.\r\n"
    },
    {
      "id": 5,
      "isActive": true,
      "like": false,
      "price": 600,
      "quantity": 10,
      "share": 3,
      "picture": "https://www.francemobiles.com/actualites/image-l-apple-watch-series-3-arrive-le-22-septembre-en-boutique-2017-17585-francemobiles.jpg",
      "name": "Apple watch",
      "description": "Ullamco cupidatat id proident incididunt minim consectetur sit labore amet qui eu. Nisi esse anim commodo excepteur ad laboris cillum mollit et nostrud. Est excepteur et fugiat magna excepteur Lorem elit do aute dolore. Nostrud exercitation excepteur ut laboris sit. Aliquip aliquip in pariatur reprehenderit culpa labore adipisicing. Occaecat ullamco aliqua in magna amet fugiat ea proident non ut. Exercitation exercitation fugiat cillum eu.\r\n"
    },
    {
      "id": 6,
      "isActive": true,
      "like": true,
      "price": 150,
      "quantity": 10,
      "share": 3,
      "picture": "https://target.scene7.com/is/image/Target/52030990?wid=250&hei=250&qlt=80&fmt=pjpeg",
      "name": "Apple Charger",
      "description": "Ullamco cupidatat id proident incididunt minim consectetur sit labore amet qui eu. Nisi esse anim commodo excepteur ad laboris cillum mollit et nostrud. Est excepteur et fugiat magna excepteur Lorem elit do aute dolore. Nostrud exercitation excepteur ut laboris sit. Aliquip aliquip in pariatur reprehenderit culpa labore adipisicing. Occaecat ullamco aliqua in magna amet fugiat ea proident non ut. Exercitation exercitation fugiat cillum eu.\r\n"
    }
  ]
}